┌────────────┬────────┬─────────────────────┐
│    date    │  prcp  │     avg_prcp_7d     │
│    date    │ double │       double        │
├────────────┼────────┼─────────────────────┤
│ 2013-07-01 │   0.84 │              0.3625 │
│ 2013-07-02 │   0.08 │                0.29 │
│ 2013-07-03 │   0.53 │ 0.24166666666666667 │
│ 2013-07-04 │    0.0 │ 0.20714285714285713 │
│ 2013-07-05 │    0.0 │ 0.11857142857142856 │
│ 2013-07-06 │    0.0 │ 0.13999999999999999 │
│ 2013-07-07 │    0.0 │  0.0642857142857143 │
│ 2013-07-08 │   0.22 │  0.0642857142857143 │
│ 2013-07-09 │   0.23 │ 0.09999999999999999 │
│ 2013-07-10 │    0.0 │ 0.10857142857142857 │
│     ·      │     ·  │           ·         │
│     ·      │     ·  │           ·         │
│     ·      │     ·  │           ·         │
│ 2021-08-22 │   2.67 │  1.1985714285714286 │
│ 2021-08-23 │   1.07 │                1.17 │
│ 2021-08-24 │    0.0 │  1.2657142857142856 │
│ 2021-08-25 │    0.0 │                0.63 │
│ 2021-08-26 │    0.0 │  0.2485714285714286 │
│ 2021-08-27 │   0.67 │ 0.09571428571428572 │
│ 2021-08-28 │    0.0 │ 0.09571428571428572 │
│ 2021-08-29 │    0.0 │ 0.11166666666666668 │
│ 2021-08-30 │    0.0 │               0.134 │
│ 2021-08-31 │    0.0 │                 0.0 │
├────────────┴────────┴─────────────────────┤
│ 2984 rows (20 shown)            3 columns │
